mtllib materials.mtl
v 0.5319357 -0.03566281 0.1226421
v 0.4223099 0.1287764 -0.1158088
v 0.351172 -0.03848057 0.4704266
v 1.289649 -0.29783 0.9558184
v 1.323476 -0.002207441 0.8956075
v 1.467528 -0.05617592 0.634705
v 0.6413443 -0.1768624 0.2214719
v 0.4577858 -0.1253073 0.5607289
v 0.2096956 0.2367163 0.3548227
v 0.2661362 -0.3098259 0.41083
v 0.389986 -0.3049968 0.09998047
v 1.482237 -0.00135356 0.6312069
v -0.2976122 0.5395537 -0.4549825
v 0.6936145 -0.2491811 0.6564698
v 1.426349 -0.3572752 0.6830007
v 0.4202027 -0.3582006 0.4704418
v 0.5374608 -0.3849575 0.2507488
v -0.1371627 -0.155727 0.1296507
v 0.006888866 -0.2096945 -0.1312516
v 0.004865646 -0.3786921 0.2541865
v 0.3315151 -0.4943359 0.4134504
v 0.1489165 -0.4326596 -0.006715
v -0.186316 -0.3311318 0.1387924
v -0.04226494 -0.3850991 -0.1221091
v 1.338185 0.05261498 0.8921096
v -0.4416642 0.5935221 -0.1940797
v -0.08928347 0.2569247 -0.3950499
v -0.2953048 0.363412 0.079523
v 1.358297 0.117845 0.5960714
v 1.254333 0.1567948 0.7843673
v 1.306315 0.1373199 0.690219
v -0.3696384 0.5665383 -0.3245311
v -0.09662676 0.5112342 -0.005047023
v 0.3523753 0.3899963 -0.004311025
v 1.233217 0.1516855 0.5214174
v 1.178665 0.1718557 0.6140316
v 1.124114 0.192026 0.7066463
v 0.2484112 0.4289469 0.1839854
v 0.02738142 0.4647751 -0.2296469
v -0.3221536 0.4338571 -0.4460472
v -0.4662056 0.4878264 -0.1851444
v -0.5171485 0.2654923 -0.1818168
v -0.3730965 0.2115248 -0.4427192
v -0.2688632 -0.04670658 -0.3286821
v -0.5078835 0.1498197 -0.1677021
v -0.363831 0.09585291 -0.4286042
v -0.4063215 0.0058076 -0.06383836
v 0.8186831 -0.539766 0.6819495
v 0.8490932 -0.3121457 0.3606128
v 1.284671 -0.5530901 0.6775692
v 0.905174 -0.5792433 0.5007982
v 1.172746 -0.504641 0.9051315
v 0.8291316 -0.8092725 0.7115307
v 1.267036 -0.744139 0.7224734
v 1.166016 -0.7087849 0.9061865
v 0.8973041 -0.8351594 0.5836132
v 0.8624783 -0.9929652 0.7633677
v 1.171691 -0.9804784 0.7629825
v 1.104622 -0.9529346 0.8855409
v 0.9167469 -1.009004 0.6515203
v 0.427603 -0.5297165 0.2468847
v -0.1919518 0.6348017 -0.2460831
v -0.133924 0.5406328 -0.1310083
v -0.09445286 0.5258446 -0.2024981
v 1.334431 0.2082898 0.5976514
v 1.274605 0.2244762 0.5619445
v 1.262187 0.2477446 0.7405061
v 1.289813 0.2373956 0.6904714
v 1.309567 0.2176049 0.6426822
v 1.248513 0.2341224 0.6062423
v 1.192984 0.2664683 0.6992017
v 1.221974 0.2557482 0.6499829
v -0.3490119 0.5064315 -0.3637019
v -0.4151778 0.5306009 -0.2437937
v -0.4578419 0.5404057 -0.2693117
v -0.3916755 0.5162363 -0.3892202
v -0.4692678 0.4103589 -0.1995628
v -0.5119314 0.4201642 -0.2250813
v -0.4365311 0.3118767 -0.2921351
v -0.4791942 0.3216814 -0.3176528
v -0.3622084 0.3712526 -0.3935781
v -0.4048719 0.3810575 -0.4190967
v -0.1999359 0.4678812 -0.2098058
v -0.09201002 0.2240392 -0.4850796
v 0.6611524 0.04648347 -0.03250876
v 0.5532267 0.2903255 0.2427652
v -0.1918774 -0.1453613 -0.4638072
v 0.561285 -0.322917 -0.01123625
v -0.3996706 -0.2709198 -0.1672608
v 0.353492 -0.4484756 0.28531
v -0.5075965 -0.02707745 0.1080137
v 0.2455661 -0.2046332 0.5605844
v -0.4077291 0.3423228 0.08674055
v 0.3454335 0.164767 0.5393115
v 0.6740596 -0.5039851 0.4901001
v 0.9602342 -0.4691163 0.6361654
v 1.006458 -0.2883925 0.5024589
v 0.900116 -0.2581278 0.7035822
v 0.611227 -0.1465776 0.5189498
v 0.7175696 -0.1768422 0.3178266
v -0.4730711 0.2530574 0.03849387
v -0.4567757 0.2929507 0.02987465
v -0.02823019 0.1725665 0.2828968
v -0.04452562 0.1326735 0.2915159
v -0.4338198 0.3198661 0.003799975
v -0.005274296 0.1994815 0.256822
v -0.4103546 0.3265908 -0.03274363
v 0.01819134 0.2062067 0.2202784
v -0.3926673 0.3113246 -0.06996429
v 0.03587818 0.19094 0.1830578
v -0.3854976 0.2781561 -0.09788901
v 0.04304838 0.1577722 0.1551334
v -0.3907661 0.2359744 -0.109035
v 0.03777981 0.1155905 0.1439875
v -0.4070621 0.1960821 -0.1004156
v 0.02148438 0.07569752 0.1526067
v -0.4300179 0.1691667 -0.074341
v -0.001471519 0.04878252 0.1786815
v -0.4534822 0.1624417 -0.03779674
v -0.02493715 0.04205733 0.2152251
v -0.4711699 0.1777082 -0.0005764663
v -0.042624 0.057324 0.2524457
v -0.4783401 0.2108758 0.02734762
v -0.0497942 0.09049182 0.2803701
v -0.5295596 0.2265621 -0.0390119
v -0.5054994 0.2057943 -0.08964425
v -0.4742718 0.2424068 -0.125115
v -0.4671044 0.2997878 -0.1099525
v -0.4911652 0.3205558 -0.05932063
v -0.5223923 0.2839421 -0.0238497
v -0.5346274 0.06042394 0.03985131
v -0.5200586 0.1008588 0.03068191
v -0.1013584 0.01384796 0.3122548
v -0.1159277 -0.02658652 0.3214242
v -0.4971027 0.1281214 0.00497064
v -0.07840252 0.04111019 0.2865435
v -0.4719105 0.134906 -0.0303933
v -0.05321026 0.04789529 0.2511795
v -0.4512329 0.1193963 -0.06593412
v -0.03253269 0.03238517 0.2156387
v -0.4406099 0.08574618 -0.09212899
v -0.02190971 -0.001264212 0.1894442
v -0.4428883 0.04297384 -0.1019586
v -0.02418804 -0.04403657 0.1796147
v -0.4574575 0.002540075 -0.09278911
v -0.03875732 -0.08447106 0.1887841
v -0.4804139 -0.02472253 -0.06707793
v -0.06171322 -0.1117333 0.2144954
v -0.5056052 -0.03150736 -0.03171331
v -0.08690548 -0.1185184 0.2498593
v -0.5262833 -0.01599751 0.003827155
v -0.107583 -0.1030083 0.2854001
v -0.5369062 0.01765172 0.03002137
v -0.118206 -0.06935885 0.3115947
v -0.5848737 0.02810075 -0.03971413
v -0.5567451 0.007001799 -0.08806145
v -0.5255175 0.04408662 -0.1230378
v -0.522418 0.1022712 -0.1096659
v -0.5505466 0.1233703 -0.06131911
v -0.5817742 0.08628435 -0.02634257
v -0.4526725 -0.08839055 -0.1351884
v -0.4359822 -0.04892387 -0.144941
v -0.002852917 -0.1718445 0.09889045
v -0.01954365 -0.2113109 0.1086431
v -0.413301 -0.0228438 -0.1720832
v 0.01982832 -0.1457649 0.07174826
v -0.3907065 -0.01713926 -0.2093422
v 0.04242229 -0.1400598 0.03448918
v -0.3742533 -0.03333715 -0.2467347
v 0.05887556 -0.1562581 -0.002903223
v -0.36835 -0.06709918 -0.2742414
v 0.0647788 -0.1900194 -0.03040969
v -0.374578 -0.1093772 -0.2844917
v 0.05855083 -0.2322975 -0.04065987
v -0.3912692 -0.1488428 -0.274739
v 0.04186058 -0.2717638 -0.03090727
v -0.41395 -0.1749228 -0.2475969
v 0.01917934 -0.2978435 -0.003765076
v -0.4365435 -0.1806276 -0.2103372
v -0.003415108 -0.3035485 0.033494
v -0.4529972 -0.1644296 -0.1729452
v -0.0198679 -0.2873502 0.07088637
v -0.4589009 -0.1306684 -0.145439
v -0.02577162 -0.2535889 0.09839287
v -0.5116029 -0.1153083 -0.2107051
v -0.4892211 -0.1373434 -0.2615712
v -0.4583673 -0.1018672 -0.2984939
v -0.4498954 -0.04435511 -0.2845499
v -0.4722772 -0.02231981 -0.2336842
v -0.5031304 -0.05779715 -0.1967613
v -0.3404603 -0.009949235 -0.3230363
v -0.324893 0.02948374 -0.334612
v 0.1161232 -0.07464892 -0.09623176
v 0.1005557 -0.1140816 -0.08465612
v -0.3034086 0.05502466 -0.363202
v 0.1376076 -0.04910839 -0.1248218
v -0.2817645 0.05982904 -0.4011458
v 0.1592517 -0.04430353 -0.1627656
v -0.2657599 0.04261118 -0.4382763
v 0.175256 -0.0615218 -0.1998961
v -0.2596841 0.007982673 -0.4646447
v 0.1813323 -0.09614958 -0.2262642
v -0.2651639 -0.03477612 -0.4731851
v 0.1758525 -0.1389084 -0.2348047
v -0.2807317 -0.07420803 -0.4616095
v 0.1602848 -0.178341 -0.223229
v -0.3022161 -0.09974893 -0.4330195
v 0.1388004 -0.2038815 -0.194639
v -0.3238597 -0.1045536 -0.3950751
v 0.1171565 -0.2086864 -0.1566952
v -0.3398643 -0.08733553 -0.357945
v 0.1011519 -0.1914681 -0.1195647
v -0.3459411 -0.05270791 -0.3315771
v 0.09507561 -0.1568403 -0.09319657
v -0.4003839 -0.04096529 -0.3961615
v -0.3786125 -0.0643879 -0.4466713
v -0.3493872 -0.02964517 -0.4855636
v -0.3419323 0.02852098 -0.4739454
v -0.3637037 0.05194375 -0.423436
v -0.3929291 0.01719988 -0.3845435
v -0.2907634 0.1756837 -0.3317671
v -0.2764282 0.2160641 -0.3415259
v 0.1635718 0.1185936 -0.09849602
v 0.1492364 0.07821355 -0.08873731
v -0.2553592 0.2434395 -0.3686917
v 0.1846409 0.1459686 -0.125662
v -0.2332015 0.2504738 -0.4059858
v 0.2067983 0.1530034 -0.162956
v -0.2158933 0.2352839 -0.443415
v 0.224107 0.1378131 -0.2003852
v -0.2080712 0.2019379 -0.4709505
v 0.2319291 0.1044678 -0.2279205
v -0.2118316 0.1593726 -0.4812139
v 0.2281687 0.06190248 -0.2381838
v -0.2261672 0.1189933 -0.4714552
v 0.2138333 0.02152241 -0.228425
v -0.2472363 0.09161791 -0.4442893
v 0.1927643 -0.005852563 -0.2012591
v -0.269393 0.08458334 -0.4069946
v 0.1706069 -0.01288738 -0.1639651
v -0.2867017 0.09977344 -0.3695658
v 0.1532981 0.002302969 -0.1265359
v -0.2945242 0.1331185 -0.3420308
v 0.1454761 0.03564824 -0.09900057
v -0.3481469 0.1453976 -0.4071991
v -0.3246017 0.1247337 -0.4581152
v -0.2959409 0.1619719 -0.4950703
v -0.2908254 0.2198748 -0.4811084
v -0.3143706 0.240539 -0.4301926
v -0.3430314 0.2032996 -0.3932374
vn -0.5465167 -0.7854779 -0.2904204
vn 0.8752816 -0.001656486 0.4836107
vn -0.7478921 -0.654999 -0.1078596
vn -0.6556 -0.01994516 0.7548448
vn -0.8261082 0.4624813 -0.3219568
vn 0.4714762 -0.1815646 -0.8629858
vn -0.431594 -0.8968122 -0.09723457
vn -0.3799447 0.2466872 0.8915086
vn -0.3792397 0.2261398 0.8972391
vn 0.2960886 -0.6041878 -0.7397896
vn 0.5466815 -0.2049857 -0.8118622
vn -0.3820333 -0.08244123 0.9204641
vn 0.8123016 -0.3387103 0.4748069
vn 0.5059132 -0.1959562 -0.8400316
vn 0.2694983 0.9616953 -0.05012849
vn -0.4265251 -0.3124685 0.8487872
vn 0.6641234 -0.6122651 0.4290358
vn 0.539797 -0.4005053 -0.7404152
vn -0.3373752 -0.9413325 0.008440521
vn -0.4756141 0.1781764 0.86142
vn -0.2694983 -0.9616953 0.05012882
vn 0.4756128 -0.1781811 -0.8614198
vn -0.837355 0.2083076 -0.5054153
vn 0.8413866 -0.1935433 0.5045885
vn -0.4714783 0.1815582 0.862986
vn -0.2874028 -0.9536763 0.08888882
vn 0.5633007 0.3675849 -0.7399823
vn 0.6474493 0.7338286 0.2056819
vn -0.3031706 0.5562128 0.7737668
vn 0.2603617 0.963907 -0.0556337
vn 0.2838923 0.9579616 -0.04141207
vn 0.4329225 0.8313374 -0.3485059
vn -0.09996819 0.8325337 0.5448799
vn 0.5747284 0.4348585 -0.6932427
vn -0.171815 0.7202659 0.6720839
vn 0.5111158 0.4642083 -0.7233749
vn -0.8509002 0.1551388 -0.5018973
vn -0.7824065 0.1881566 0.5936642
vn -0.8434402 0.1857118 -0.5041029
vn -0.5654994 0.1989655 0.8003894
vn 0.3454076 -0.1583955 -0.9249889
vn 0.2068963 -0.3241397 -0.9231075
vn -0.8792359 -0.1264706 -0.4592922
vn -0.757153 -0.02660643 0.6526955
vn 0.7951005 -0.3642644 0.4848986
vn -0.7067341 -0.6675023 -0.2344522
vn 0.7024114 -0.03051104 -0.711117
vn -0.6916004 0.03264786 0.7215422
vn -0.4533446 -0.117649 0.8835369
vn -0.4529958 -0.1890305 0.8712418
vn 0.4705925 -0.1681995 -0.8661708
vn 0.7089455 -0.5259749 0.4698368
vn 0.4371199 -0.3443106 -0.8308889
vn -0.8586065 -0.3978895 -0.3232319
vn -0.5369471 0.07144624 0.8405851
vn -0.5376318 0.09867053 0.8373866
vn 0.421091 -0.280748 -0.862475
vn 0.8783478 0.03103736 0.4770134
vn 0.4203725 -0.2910338 -0.8594105
vn -0.8863366 -0.08433603 -0.4552965
vn -0.5264999 0.1410131 0.8383992
vn 0.3931093 -0.2446175 -0.8863563
vn -0.5049012 0.02110568 0.8629192
vn 0.8245323 -0.2502488 0.5074663
vn 0.3987032 -0.2946455 -0.8684583
vn -0.8707429 -0.2734089 -0.4087228
vn 0.03947241 -0.9700657 0.2396134
vn 0.4096776 -0.3121893 -0.8571477
vn -0.4552795 0.03926902 0.8894821
vn 0.5412879 -0.3909127 -0.7444425
vn -0.4577751 -0.072725 0.8860886
vn -0.007497749 0.9030983 0.4293684
vn 0.1738752 -0.0545574 -0.9832553
vn -0.8151634 -0.5233446 -0.2482316
vn 0.7930854 -0.4222159 0.4390322
vn 0.8887305 -0.04842398 0.4558655
vn -0.5045692 -0.8594442 -0.08225337
vn -0.8518675 -0.3722424 -0.3684527
vn -0.9061374 -0.1047493 -0.4098082
vn -0.8842888 -0.2523612 -0.3928702
vn 0.04002469 -0.9861688 0.1608387
vn 0.717824 -0.5193921 0.4636385
vn 0.8946985 -0.02719435 0.4458419
vn -0.7112087 -0.6541748 -0.2573667
vn 0.2603617 0.963907 -0.0556337
vn 0.2918574 0.2883355 -0.911966
vn 0.2603617 0.963907 -0.0556337
vn 0.4595182 0.88536 0.07057407
vn -0.4992007 0.6749059 0.5434158
vn 0.6778002 0.698427 0.2297535
vn 0.9236991 0.3287168 -0.1967875
vn 0.4611841 0.6529978 0.6007522
vn 0.5370307 0.1561918 -0.8289766
vn 0.8786193 0.143733 0.4553779
vn 0.8722213 0.2225527 0.4355462
vn -0.3460169 0.488358 0.801111
vn -0.6086971 0.6210258 -0.4937761
vn 0.2838923 0.9579616 -0.04141207
vn -0.3746329 0.4287983 0.8220598
vn -0.6569182 0.556922 -0.5082288
vn 0.5281458 0.08922474 -0.844453
vn 0.283893 0.957962 -0.04139612
vn 0.8280005 -0.2478182 0.5029923
vn -0.7082632 -0.1528887 0.6891941
vn 0.8119859 -0.3202179 0.4879953
vn 0.6808259 -0.5301703 0.5053669
vn -0.3346466 -0.9423168 0.007110122
vn 0.5523602 -0.3801215 -0.7418935
vn -0.8308244 0.354582 -0.428955
vn 0.2768241 0.9527434 0.1250943
vn -0.5343802 0.1263991 0.8357399
vn 0.2543676 0.965584 -0.05426497
vn -0.3738911 0.4636688 0.8032539
vn -0.4854449 -0.679021 0.550703
vn 0.07386947 -0.8833268 -0.4629009
vn 0.5310989 0.1330949 -0.8367914
vn -0.8419794 0.1935033 -0.5036141
vn 0.8419794 -0.1935033 0.5036141
vn 0.4634748 0.7456294 -0.4787775
vn 0.4756139 -0.1781884 -0.8614177
vn 0.01213903 -0.9238178 -0.38264
vn -0.4634749 -0.7456293 0.4787776
vn -0.475614 0.1781885 0.8614175
vn -0.01213895 0.9238178 0.3826401
vn 0.8401726 -0.1980683 0.5048554
vn -0.8401726 0.1980683 -0.5048553
vn 0.418742 -0.6068876 -0.6755313
vn -0.3837924 -0.3784905 0.8422875
vn 0.3388859 0.940071 0.03772352
vn 0.8854896 0.1078934 0.4519591
vn -0.8850263 -0.1192646 -0.4500051
vn 0.3372815 -0.4733703 -0.8137333
vn -0.575736 -0.1658424 0.80064
vn -0.402474 0.3473895 0.8469565
vn -0.1631535 0.7547291 0.635425
vn 0.1198938 0.9598462 0.2536154
vn 0.3708 0.9077682 -0.1961232
vn 0.5223618 0.6124462 -0.5933362
vn 0.5339529 0.1530313 -0.8315502
vn 0.4024694 -0.3474003 -0.8469542
vn 0.1631543 -0.7547294 -0.6354244
vn -0.119894 -0.959846 -0.2536163
vn -0.3708002 -0.9077677 0.1961251
vn -0.5223605 -0.6124526 0.5933307
vn -0.5339531 -0.153034 0.8315496
vn -0.7287424 -0.5263444 0.4380594
vn 0.8369715 -0.2351163 0.4941651
vn -0.6445125 -0.7645587 0.007322371
vn -0.3411994 -0.8608592 -0.3774978
vn -0.1455384 -0.6215581 -0.76973
vn 0.1618287 -0.2711165 -0.9488453
vn 0.2009755 0.2267166 -0.9529998
vn 0.2772959 0.6531615 -0.7046184
vn 0.04853034 0.9319937 -0.3592111
vn -0.1102533 0.9876906 0.1109577
vn -0.4504448 0.7889855 0.4178534
vn -0.6132798 0.3979239 0.6823083
vn -0.7969589 -0.0592915 0.6011165
vn -0.8369715 0.2351163 -0.4941651
vn -0.470524 0.3529291 0.8087325
vn -0.2417282 0.7656874 0.5960624
vn 0.05184918 0.9732867 0.2236619
vn 0.3315167 0.9200897 -0.2086425
vn 0.5223676 0.620347 -0.5850657
vn 0.5732448 0.1543944 -0.8047067
vn 0.47052 -0.3529402 -0.80873
vn 0.2417289 -0.7656876 -0.5960618
vn -0.0518494 -0.9732865 -0.2236628
vn -0.331517 -0.9200892 0.2086443
vn -0.5223656 -0.6203535 0.5850605
vn -0.5732448 -0.1543972 0.8047062
vn -0.7235609 -0.5515322 0.4150564
vn 0.8177426 -0.1699363 0.5499262
vn -0.6009575 -0.7992806 -0.0008333127
vn -0.2704904 -0.8913818 -0.3636943
vn -0.06526659 -0.6550053 -0.7528004
vn 0.2325436 -0.2940298 -0.9270761
vn 0.2445385 0.2047843 -0.9477682
vn 0.2824871 0.6431919 -0.7116918
vn 0.01866724 0.9203026 -0.3907618
vn -0.1705916 0.9830561 0.06707678
vn -0.5170251 0.77602 0.3612176
vn -0.6736228 0.3856803 0.6304626
vn -0.8268298 -0.08377206 0.5561788
vn -0.8177426 0.1699363 -0.5499262
vn -0.3743932 0.3685891 0.8508654
vn -0.1343378 0.7682343 0.6259151
vn 0.141723 0.9620376 0.2332345
vn 0.3797942 0.8980594 -0.2219136
vn 0.5161102 0.5934381 -0.6176257
vn 0.5141312 0.1298174 -0.8478305
vn 0.3743886 -0.3685999 -0.8508627
vn 0.1343386 -0.7682346 -0.6259145
vn -0.1417233 -0.9620373 -0.2332353
vn -0.3797944 -0.898059 0.2219155
vn -0.5161092 -0.5934447 0.6176203
vn -0.5141315 -0.1298202 0.8478299
vn -0.7251371 -0.5067048 0.4662901
vn 0.8459228 -0.2400701 0.4762153
vn -0.6561044 -0.7537223 0.03781372
vn -0.3646339 -0.8616331 -0.3530307
vn -0.1756529 -0.6324143 -0.7544522
vn 0.1323742 -0.2901945 -0.9477681
vn 0.1792657 0.2067876 -0.9618226
vn 0.268862 0.6361936 -0.7231673
vn 0.05374821 0.9246846 -0.3769213
vn -0.09164672 0.9911367 0.09617228
vn -0.4267041 0.8033693 0.415357
vn -0.5886534 0.419674 0.6909131
vn -0.7816231 -0.03583506 0.6227208
vn -0.8459228 0.2400701 -0.4762153
vn -0.3641813 0.3917984 0.8449059
vn -0.1382701 0.7879509 0.6000125
vn 0.1246997 0.9729781 0.1943289
vn 0.3542419 0.897293 -0.263397
vn 0.4888753 0.5811694 -0.6505714
vn 0.4925113 0.1093342 -0.8634111
vn 0.364177 -0.3918092 -0.8449028
vn 0.1382709 -0.7879511 -0.6000119
vn -0.1247 -0.9729779 -0.1943298
vn -0.3542421 -0.8972924 0.2633989
vn -0.4888742 -0.5811761 0.6505662
vn -0.4925116 -0.109337 0.8634106
vn -0.7030662 -0.5047877 0.5008867
vn 0.8613269 -0.2033762 0.4655687
vn -0.6377115 -0.7660711 0.08036926
vn -0.3523961 -0.8820651 -0.3126953
vn -0.1774629 -0.6639036 -0.7264564
vn 0.1183865 -0.32244 -0.9391577
vn 0.1535781 0.1745824 -0.9725918
vn 0.238482 0.6144839 -0.7520212
vn 0.02438592 0.9109045 -0.4118962
vn -0.1121934 0.9917765 0.06157908
vn -0.435863 0.80873 0.394942
vn -0.5829741 0.4321277 0.6880457
vn -0.7669045 -0.02975868 0.641071
vn -0.8613269 0.2033762 -0.4655687
vn -0.39386 0.3456528 0.8517033
vn -0.1779948 0.7587667 0.6265709
vn 0.0855732 0.9685762 0.2335325
vn 0.3261972 0.9188513 -0.2220533
vn 0.4794278 0.6229128 -0.6181657
vn 0.5041917 0.1600768 -0.8486261
vn 0.393856 -0.3456638 -0.8517007
vn 0.1779956 -0.7587669 -0.6265703
vn -0.08557349 -0.968576 -0.2335333
vn -0.3261974 -0.9188508 0.2220552
vn -0.4794264 -0.6229192 0.6181602
vn -0.5041918 -0.1600795 0.8486255
vn -0.693433 -0.5484931 0.4672323
vn 0.8593422 -0.1903647 0.4746496
vn -0.6107982 -0.7908497 0.03850175
vn -0.3141844 -0.881336 -0.3528953
vn -0.1396348 -0.6412646 -0.7545077
vn 0.147501 -0.2815136 -0.9481528
vn 0.1651995 0.2173674 -0.9620087
vn 0.2299197 0.6511717 -0.7232651
vn -0.001114458 0.9264182 -0.3764944
vn -0.1493351 0.984029 0.09688146
vn -0.4722783 0.7768258 0.4165273
vn -0.6110178 0.3841828 0.6921422
vn -0.7771128 -0.08180872 0.6240217
vn -0.8593422 0.1903647 -0.4746496
vt -0.202329 -0.2103708
vt -0.2324964 -0.2033641
vt -0.1898875 -0.2475405
vt 0.06990494 -0.1685979
vt 0.09124491 -0.1470056
vt 0.07080168 -0.1246581
vt -0.2299175 -0.1056849
vt -0.2007819 -0.1161867
vt -0.1803775 -0.115548
vt 0.1758353 -0.2021483
vt 0.1916958 -0.206512
vt 0.2243042 -0.2012375
vt 0.03069279 -0.187988
vt 0.02303278 -0.2352108
vt 0.04811539 -0.2130578
vt -0.1249657 -0.1864439
vt -0.1283584 -0.1818798
vt -0.3085637 -0.2998991
vt -0.1518751 -0.285742
vt -0.1293599 -0.2685861
vt -0.1703407 -0.2514858
vt 0.1757281 -0.284643
vt 0.2242016 -0.2840117
vt 0.1253622 -0.2057098
vt 0.1754154 -0.2847986
vt 0.1258636 -0.2053518
vt 0.1030096 -0.2253347
vt -0.2322566 -0.2812322
vt -0.181967 -0.2859698
vt -0.1014975 -0.239682
vt -0.230382 -0.2463837
vt -0.1033952 -0.1944344
vt -0.1240379 -0.171614
vt 0.175159 -0.2978515
vt 0.1440421 -0.3079314
vt 0.1563342 -0.3199816
vt 0.008517085 -0.1968144
vt -0.003147018 -0.2171485
vt 0.01526649 -0.2341263
vt -0.1792417 -0.2553269
vt -0.1996527 -0.2557021
vt -0.1891995 -0.2843862
vt 0.1643187 -0.3104503
vt 0.1812451 -0.362642
vt 0.2001106 -0.3389475
vt 0.1267054 -0.3209799
vt 0.116838 -0.3068754
vt 0.1290723 -0.3521218
vt -0.02078274 -0.2953745
vt -0.04023444 -0.2795968
vt -0.0333192 -0.3071771
vt -0.1738466 -0.2690681
vt -0.1957628 -0.274399
vt -0.208218 -0.3009099
vt -0.1905954 -0.3056461
vt -0.1731837 -0.3304284
vt -0.1443697 -0.3054456
vt 0.1945238 -0.3200971
vt 0.2130574 -0.3334307
vt 0.2237091 -0.318625
vt -0.1633836 -0.3484206
vt -0.182249 -0.3247262
vt -0.2001105 -0.3389475
vt -0.1812452 -0.362642
vt -0.1945239 -0.3200974
vt -0.1865707 -0.2919069
vt -0.2237091 -0.3186253
vt -0.2130576 -0.333431
vt -0.01844748 -0.1891821
vt -0.04092001 -0.2094878
vt -0.02869187 -0.2230206
vt -0.006219412 -0.202715
vt 0.05293369 -0.1492692
vt 0.07529269 -0.1696998
vt 0.07911105 -0.1654855
vt 0.05675203 -0.1450548
vt 0.1249773 -0.1866114
vt 0.3085751 -0.3000671
vt 0.1283701 -0.1820474
vt -0.1430701 -0.3514764
vt -0.1797933 -0.3135962
vt -0.2237862 -0.3539184
vt -0.1864642 -0.3912962
vt -0.2114932 -0.3657575
vt -0.1068884 -0.1774483
vt -0.1221334 -0.1861448
vt 0.1252521 -0.1596182
vt 0.120855 -0.1895849
vt 0.1380018 -0.1886274
vt 0.1395885 -0.1778137
vt 0.1411752 -0.1670001
vt 0.117862 -0.2231415
vt 0.3092462 -0.3220078
vt 0.1350252 -0.2225492
vt 0.2238288 -0.4004498
vt 0.2333479 -0.3886718
vt 0.193594 -0.3739656
vt 0.1820059 -0.3259431
vt 0.09937249 -0.2606564
vt 0.09290772 -0.2694773
vt 0.08644292 -0.2782982
vt 0.1685943 -0.3432041
vt 0.03442382 -0.2473864
vt 0.04275604 -0.2598045
vt 0.1014332 -0.3472552
vt 0.1264096 -0.3788158
vt 0.151386 -0.4103764
vt 0.296161 -0.3501422
vt 0.2614403 -0.329893
vt 0.2267197 -0.3096437
vt 0.1341313 -0.2607663
vt 0.1203631 -0.2534981
vt -0.1778027 -0.3808386
vt -0.1248814 -0.3085892
vt -0.09191141 -0.1828412
vt 0.1095811 -0.247114
vt 0.2155607 -0.3154421
vt 0.3048411 -0.339059
vt -0.1274559 -0.3835107
vt -0.1092723 -0.3266722
vt -0.1488108 -0.4041337
vt -0.07544033 -0.1247647
vt -0.08646215 -0.13515
vt -0.09748391 -0.1455353
vt -0.09005658 -0.153496
vt -0.06801292 -0.1327254
vt 0.2560998 -0.1494093
vt 0.282848 -0.1729794
vt 0.28992 -0.1512913
vt -0.06647928 -0.1782181
vt -0.0441823 -0.1577198
vt -0.06051953 -0.1417989
vt -0.08281668 -0.1622972
vt 0.3048419 -0.2736704
vt 0.3110544 -0.2647294
vt 0.2239647 -0.234003
vt -0.2172339 -0.2924532
vt -0.2978926 -0.3313739
vt -0.2904776 -0.3393461
vt -0.2691819 -0.3324032
vt -0.2822785 -0.3584284
vt -0.2527703 -0.3643268
vt -0.1261815 -0.0783914
vt -0.1447404 -0.1023267
vt -0.1347704 -0.1084301
vt -0.1162115 -0.08449476
vt 0.2933503 -0.1929248
vt 0.2728381 -0.1637655
vt 0.2644466 -0.2029722
vt 0.001715546 -0.190592
vt -0.01323733 -0.2232243
vt 0.01043358 -0.2421356
vt -0.2608652 -0.1401949
vt -0.2800038 -0.1693563
vt -0.2595786 -0.1704652
vt -0.2959502 -0.2403982
vt -0.2871065 -0.2480427
vt -0.2673495 -0.2497536
vt 0.263106 -0.2472868
vt 0.2835339 -0.2462282
vt 0.2924767 -0.2386997
vt 0.1388727 -0.2587907
vt 0.1020985 -0.2029339
vt 0.1073308 -0.2623147
vt 0.1000325 -0.2027088
vt 0.1331684 -0.2607979
vt 0.1554494 -0.278257
vt -0.176828 -0.2638966
vt -0.1500566 -0.2543307
vt -0.1028416 -0.2078259
vt 0.03126676 -0.2364903
vt 0.005867412 -0.2185634
vt -0.006383696 -0.2394048
vt -0.103312 -0.217582
vt -0.1540341 -0.2602343
vt -0.1259586 -0.2726097
vt -0.1257975 -0.1168007
vt -0.09433702 -0.1209899
vt -0.08621892 -0.102211
vt 0.1202219 -0.2448564
vt 0.09562415 -0.2108123
vt 0.09811342 -0.2605851
vt 0.1027992 -0.1887487
vt 0.09570162 -0.2119799
vt 0.120985 -0.2455179
vt -0.1238659 -0.274129
vt -0.0972812 -0.2416828
vt -0.1033349 -0.2182775
vt 0.03819934 -0.1569486
vt 0.02431281 -0.1709284
vt 0.03817913 -0.1870461
vt -0.09742491 -0.2420507
vt -0.1241643 -0.2743695
vt -0.1026973 -0.290596
vt -0.0570568 -0.1633432
vt -0.03455778 -0.178508
vt -0.02517408 -0.1671612
vt 0.1003069 -0.2662444
vt 0.08121169 -0.2308867
vt 0.08293114 -0.2748179
vt -0.09978499 -0.2934322
vt -0.08113407 -0.2574485
vt -0.09618782 -0.2447341
vt 0.09490995 -0.216255
vt 0.07895064 -0.2290031
vt 0.09442725 -0.2660877
vt 0.01996741 -0.2289089
vt -0.009819462 -0.236413
vt 0.001034886 -0.2456303
vt -0.08250575 -0.2582002
vt -0.1021018 -0.293678
vt -0.08558229 -0.3025785
vt -0.0481099 -0.1399115
vt -0.05562907 -0.1525711
vt -0.03883383 -0.1622325
vt -0.06486584 -0.321083
vt -0.04709804 -0.3002042
vt -0.05790368 -0.2909298
vt -0.08674011 -0.3016818
vt -0.06977294 -0.2794454
vt -0.0830964 -0.2573464
vt 0.07839141 -0.2403247
vt 0.06241513 -0.25989
vt 0.07514782 -0.2841697
vt -0.2080752 -0.3005648
vt -0.1717461 -0.2866296
vt -0.1738421 -0.2685742
vt 0.1495048 -0.2906787
vt 0.1433218 -0.3067483
vt 0.1721469 -0.3317182
vt 0.2846341 -0.3652341
vt 0.2002172 -0.3337949
vt 0.2507845 -0.363988
vt -0.2345069 -0.3579794
vt -0.2617171 -0.3698515
vt -0.2448544 -0.3852147
vt -0.2014973 -0.05918518
vt -0.2125295 -0.1107777
vt -0.1800297 -0.1166849
vt -0.0102801 -0.2472436
vt 0.0233623 -0.2254315
vt -0.02048097 -0.1959729
vt 0.06343444 -0.1218583
vt 0.04213855 -0.1440703
vt 0.06437464 -0.1657972
vt -0.1330744 -0.24991
vt -0.1476559 -0.2191842
vt -0.1733832 -0.2312806
vt -0.08348979 -0.1148272
vt -0.1089622 -0.09772344
vt -0.1233863 -0.1285234
vt -0.02422995 -0.1516094
vt -0.04275214 -0.1320886
vt -0.05608942 -0.147602
vt -0.03544999 -0.1578518
vt -0.02933743 -0.1469083
vt -0.04405048 -0.1352619
vt -0.06203762 -0.2903966
vt -0.07967837 -0.3121025
vt -0.0701597 -0.3202583
vt -0.006482996 -0.2373712
vt 0.01462618 -0.2522371
vt 0.03116674 -0.2344474
vt 0.03180632 -0.1856066
vt 0.04848059 -0.1738091
vt 0.03022633 -0.1555506
vt -0.2577465 -0.1372206
vt -0.2775019 -0.1354923
vt -0.2777745 -0.1657786
vt 0.2099831 -0.3536871
vt 0.1770993 -0.3304806
vt 0.1633593 -0.3474813
vt 0.193594 -0.3739656
vt -0.2150627 -0.4009182
vt -0.191675 -0.365949
vt -0.2154642 -0.3803342
vt 0.2333479 -0.3886718
vt 0.2428669 -0.3768937
vt 0.2099831 -0.3536871
vt 0.2546257 -0.2912787
vt 0.2427341 -0.3144822
vt 0.2558862 -0.311612
vt 0.2596713 -0.3042264
vt 0.2466785 -0.2682889
vt 0.2874083 -0.2800245
vt 0.2750065 -0.263591
vt 0.3033177 -0.1784505
vt 0.2885793 -0.1745067
vt 0.2879551 -0.1827822
vt 0.03825731 0.2460196
vt 0.03914679 0.2300829
vt 0.04556679 0.2182507
vt 0.2745988 -0.2400918
vt 0.2843902 -0.2499523
vt 0.2994098 -0.2526327
vt -0.1505367 -0.1870067
vt -0.1404237 -0.1759903
vt -0.149347 -0.1731798
vt -0.1541841 -0.1784489
vt 0.1093455 -0.1124864
vt 0.1159333 -0.1212073
vt 0.1222324 -0.1132767
vt 0.1187314 -0.108642
vt 0.1117502 -0.09964857
vt 0.1177733 -0.1087685
vt 0.1236465 -0.1015113
vt 0.1207656 -0.09714928
vt 0.1388448 -0.2110209
vt 0.1521316 -0.2185294
vt 0.1527797 -0.2091621
vt 0.1464247 -0.2055708
vt -0.02925606 -0.2291584
vt -0.02056834 -0.2225158
vt -0.02812653 -0.2170924
vt -0.03228183 -0.2202697
vt 0.09459388 -0.2605142
vt 0.08898149 -0.25608
vt 0.08577414 -0.260208
vt 0.09150172 -0.2647332
vt 0.1390213 -0.2078919
vt 0.1524728 -0.2157306
vt 0.1540404 -0.2056835
vt 0.1468917 -0.2015178
vt -0.04565883 -0.2240316
vt -0.03701662 -0.2173299
vt -0.04494699 -0.2110712
vt -0.04953983 -0.2146327
vt -0.1559562 -0.1838727
vt -0.1449981 -0.1732502
vt -0.1541976 -0.1689787
vt -0.160021 -0.174624
vt 0.08219802 -0.2642762
vt 0.07863428 -0.2688628
vt 0.0851265 -0.2739919
vt 0.08856208 -0.2693042
vt 0.0198341 -0.2276896
vt 0.003997215 -0.2135034
vt -0.009947162 -0.2352159
vt 0.1896462 -0.1817631
vt 0.1741484 -0.1762479
vt 0.1612236 -0.19795
vt 0.0193475 -0.2331734
vt 0.04190865 -0.2218142
vt 0.01296833 -0.1957964
vt -0.02103396 -0.2729571
vt -0.03014461 -0.2886855
vt -0.0147013 -0.3006769
vt -0.1443714 -0.3059976
vt -0.1553136 -0.2897941
vt -0.190597 -0.3061976
vt -0.1957412 -0.271259
vt -0.173844 -0.2658509
vt -0.1818992 -0.2438364
vt -0.002817723 -0.1811454
vt -0.02934354 -0.2100029
vt -0.007178348 -0.2287863
vt 0.1829149 -0.296045
vt 0.1610782 -0.3214036
vt 0.2065986 -0.345538
vt 0.2239844 -0.3026912
vt 0.1792064 -0.2772056
vt 0.1948043 -0.3042634
vt 0.2357823 -0.3844293
vt 0.2270202 -0.3952287
vt 0.230955 -0.3984212
vt 0.2397171 -0.3876218
vt 0.3080485 -0.3124967
vt 0.3008518 -0.3243967
vt 0.3051876 -0.3270188
vt 0.3123843 -0.3151189
vt 0.003209924 -0.4353124
vt -0.01039847 -0.4324467
vt -0.01144258 -0.4374049
vt 0.002165798 -0.4402707
vt -0.2854139 -0.3606143
vt -0.2922147 -0.3484838
vt -0.2966345 -0.3509617
vt -0.2898336 -0.3630922
vt -0.2644833 -0.3340001
vt -0.2748626 -0.3247441
vt -0.278235 -0.3285258
vt -0.2678558 -0.3377818
vt -0.06946287 -0.1459535
vt -0.07969198 -0.1553751
vt -0.07389241 -0.168015
vt -0.06007902 -0.1664052
vt -0.05734141 -0.1527704
vt 0.05734143 -0.1527705
vt 0.06007901 -0.1664052
vt 0.07389238 -0.168015
vt 0.07969196 -0.1553751
vt 0.06946287 -0.1459535
vt 0.05161828 -0.413484
vt 0.08729658 -0.3994882
vt 0.05455996 -0.3160357
vt 0.01888165 -0.3300316
vt -0.2761221 -0.3060445
vt -0.2534108 -0.3369156
vt -0.1812026 -0.2837933
vt -0.2039139 -0.2529222
vt -0.2680154 -0.34494
vt -0.2490136 -0.3782229
vt -0.1711639 -0.333777
vt -0.1901658 -0.3004941
vt -0.08729653 -0.3994882
vt -0.05161814 -0.413484
vt -0.01888156 -0.3300315
vt -0.05455993 -0.3160356
vt 0.2534108 -0.3369156
vt 0.2761221 -0.3060445
vt 0.2039139 -0.2529222
vt 0.1812026 -0.2837932
vt 0.2490136 -0.378223
vt 0.2680155 -0.34494
vt 0.1901659 -0.3004941
vt 0.171164 -0.333777
vt 0.07218967 -0.1519259
vt 0.03474708 -0.143748
vt 0.008943473 -0.1720852
vt 0.02058244 -0.2086004
vt 0.05802509 -0.2167784
vt 0.08382865 -0.1884411
vt -0.08382867 -0.1884411
vt -0.05802511 -0.2167784
vt -0.02058246 -0.2086004
vt -0.008943474 -0.1720852
vt -0.03474709 -0.143748
vt -0.07218967 -0.1519259
vt -0.1431399 -0.2935486
vt -0.1199268 -0.2710626
vt -0.1358954 -0.2545776
vt 0.08008438 -0.2996784
vt 0.09904619 -0.2648694
vt 0.07625662 -0.2675877
vt 0.1345707 -0.2938193
vt 0.1476036 -0.2749277
vt 0.1171952 -0.255557
vt 0.1041623 -0.2744487
vt 0.06934412 -0.1273973
vt 0.06003172 -0.1483742
vt 0.0828545 -0.1459505
vt -0.09601568 -0.1347202
vt -0.06167708 -0.1468059
vt -0.08266063 -0.1160548
vt -0.1396637 -0.2609301
vt -0.1724 -0.2760375
vt -0.1441738 -0.3003113
vt 0.1235571 -0.2471909
vt 0.1566563 -0.2320367
vt 0.129749 -0.2080389
vt 0.2775618 -0.3308913
vt 0.2798417 -0.3271342
vt 0.2360683 -0.3005724
vt 0.2337885 -0.3043295
vt 0.2722263 -0.3622979
vt 0.2742593 -0.3584017
vt 0.2288655 -0.3347154
vt 0.2268325 -0.3386115
vt 0.2482961 -0.3815091
vt 0.2505524 -0.3777379
vt 0.2066142 -0.3514496
vt 0.2043579 -0.3552209
vt 0.1776813 -0.3982973
vt 0.1808223 -0.3952237
vt 0.1450121 -0.3586277
vt 0.1418711 -0.3617012
vt -0.05361751 -0.4103148
vt -0.049224 -0.410212
vt -0.0504225 -0.359024
vt -0.05481593 -0.3591269
vt -0.2494958 -0.3266681
vt -0.2462905 -0.3296745
vt -0.2112627 -0.2923289
vt -0.214468 -0.2893225
vt -0.2798418 -0.3271349
vt -0.2775621 -0.3308919
vt -0.2337885 -0.3043302
vt -0.2360683 -0.3005731
vt -0.2742593 -0.3584018
vt -0.2722263 -0.362298
vt -0.2268324 -0.3386116
vt -0.2288654 -0.3347154
vt -0.2505526 -0.3777377
vt -0.2482962 -0.3815088
vt -0.2043581 -0.3552206
vt -0.2066143 -0.3514494
vt -0.1808217 -0.3952239
vt -0.1776807 -0.3982975
vt -0.1418705 -0.3617014
vt -0.1450116 -0.3586279
vt 0.04921892 -0.4102128
vt 0.05361232 -0.4103158
vt 0.05481165 -0.3591278
vt 0.05041821 -0.3590249
vt 0.2462901 -0.3296748
vt 0.2494954 -0.3266684
vt 0.2144677 -0.2893227
vt 0.2112624 -0.2923291
vt 0.04530973 -0.3423564
vt 0.04092117 -0.3421258
vt 0.04268334 -0.3504702
vt 0.06457573 -0.199877
vt 0.06681941 -0.1960982
vt 0.06687312 -0.1917039
vt 0.06472248 -0.1878715
vt 0.06094376 -0.1856278
vt 0.05654945 -0.1855741
vt 0.05271701 -0.1877247
vt 0.05047333 -0.1915034
vt 0.05041962 -0.1958977
vt 0.05257025 -0.1997302
vt 0.05634897 -0.2019739
vt 0.06074329 -0.2020276
vt -0.2607293 -0.2534943
vt -0.2622007 -0.2493533
vt -0.2704672 -0.2514504
vt -0.2684657 -0.2570835
vt -0.2714095 -0.3324776
vt -0.2731277 -0.3284329
vt -0.2798532 -0.3336769
vt -0.2735752 -0.3522045
vt -0.2755151 -0.3482612
vt -0.283484 -0.351299
vt -0.2808451 -0.3566632
vt -0.2634732 -0.3693009
vt -0.2660974 -0.3657758
vt -0.2713953 -0.3724589
vt -0.1959153 -0.4072874
vt -0.1996617 -0.4049901
vt -0.2047757 -0.411815
vt -0.1996794 -0.4149401
vt -0.05178602 -0.4445263
vt -0.05618017 -0.4445958
vt -0.05385286 -0.4528003
vt 0.1077141 -0.4394957
vt 0.1040181 -0.4418731
vt 0.107946 -0.449443
vt 0.1129737 -0.4462088
vt 0.2111752 -0.3953948
vt 0.2085899 -0.3989485
vt 0.2165463 -0.4020192
vt 0.2388438 -0.3274133
vt 0.2369317 -0.3313701
vt 0.2442326 -0.3357776
vt 0.2468339 -0.330395
vt 0.2708835 -0.2610066
vt 0.2691674 -0.2650523
vt 0.2776115 -0.2662472
vt 0.2762901 -0.1441061
vt 0.2747949 -0.1482385
vt 0.2825104 -0.1518719
vt 0.2845444 -0.1462505
vt -0.05857351 -0.1997784
vt -0.0534332 -0.1967263
vt -0.05350618 -0.1907486
vt -0.05871959 -0.187823
vt -0.06385989 -0.1908751
vt -0.06378683 -0.1968529
vt 0.2685575 -0.3308811
vt 0.2708714 -0.3271449
vt 0.2273413 -0.3001862
vt 0.2250275 -0.3039224
vt 0.2614117 -0.3715831
vt 0.2634238 -0.3676762
vt 0.2179038 -0.3442332
vt 0.2158917 -0.3481402
vt 0.2374388 -0.3956415
vt 0.2396206 -0.3918267
vt 0.1951744 -0.3664067
vt 0.1929926 -0.3702215
vt 0.1739129 -0.4054707
vt 0.1768887 -0.4022368
vt 0.139211 -0.3675665
vt 0.1362353 -0.3708003
vt -0.03370524 -0.4106267
vt -0.02934932 -0.410044
vt -0.03613802 -0.3592941
vt -0.04049386 -0.3598768
vt -0.2404172 -0.3240493
vt -0.237077 -0.3269052
vt -0.2038031 -0.2879888
vt -0.2071433 -0.2851329
vt -0.2708715 -0.3271458
vt -0.2685577 -0.330882
vt -0.2250275 -0.3039234
vt -0.2273413 -0.3001873
vt -0.2634237 -0.3676763
vt -0.2614116 -0.3715833
vt -0.2158916 -0.3481403
vt -0.2179037 -0.3442333
vt -0.2396208 -0.3918265
vt -0.237439 -0.3956413
vt -0.1929928 -0.3702213
vt -0.1951746 -0.3664065
vt -0.1768881 -0.4022371
vt -0.1739124 -0.4054709
vt -0.1362348 -0.3708005
vt -0.1392105 -0.3675667
vt 0.02934437 -0.4100447
vt 0.03370016 -0.4106275
vt 0.04048969 -0.3598776
vt 0.03613386 -0.3592949
vt 0.2370766 -0.3269055
vt 0.2404167 -0.3240496
vt 0.2071429 -0.2851331
vt 0.2038027 -0.287989
vt -0.01187438 -0.3404936
vt -0.01607828 -0.3392131
vt -0.01637719 -0.3477363
vt 0.07670024 -0.2202593
vt 0.07915395 -0.2166134
vt 0.07945602 -0.2122292
vt 0.07752549 -0.2082813
vt 0.07387967 -0.2058276
vt 0.06949542 -0.2055255
vt 0.06554752 -0.207456
vt 0.0630938 -0.2111019
vt 0.06279174 -0.2154861
vt 0.06472227 -0.219434
vt 0.0683681 -0.2218877
vt 0.07275234 -0.2221898
vt -0.2510642 -0.2732985
vt -0.2524444 -0.2691263
vt -0.260755 -0.2710418
vt -0.2588772 -0.2767175
vt -0.2608672 -0.3538042
vt -0.262565 -0.3497507
vt -0.2693168 -0.3549609
vt -0.2651915 -0.3702035
vt -0.267175 -0.3662819
vt -0.2751098 -0.3694078
vt -0.2724116 -0.3747424
vt -0.256287 -0.3766054
vt -0.2589852 -0.3731367
vt -0.2641405 -0.3799304
vt -0.189664 -0.412383
vt -0.1935161 -0.4102677
vt -0.1982975 -0.4173295
vt -0.1930575 -0.4202071
vt -0.04354171 -0.4473279
vt -0.04791873 -0.4477218
vt -0.04499185 -0.455732
vt 0.1037277 -0.445645
vt 0.1001613 -0.4482128
vt 0.1044803 -0.4555666
vt 0.1093317 -0.4520735
vt 0.2003223 -0.4045212
vt 0.1978447 -0.4081509
vt 0.2058894 -0.4109817
vt 0.2260717 -0.3300138
vt 0.2242459 -0.3340112
vt 0.2316409 -0.338259
vt 0.2341246 -0.3328212
vt 0.2596198 -0.2544133
vt 0.2579358 -0.2584725
vt 0.2663892 -0.2596004
vt 0.2663723 -0.1268335
vt 0.2648662 -0.130962
vt 0.272572 -0.1346158
vt 0.2746209 -0.1289998
vt -0.07071321 -0.2198215
vt -0.06575365 -0.2164836
vt -0.06616448 -0.2105197
vt -0.07153495 -0.2078935
vt -0.07649449 -0.2112314
vt -0.07608359 -0.2171954
vt 0.262535 -0.3579135
vt 0.2648293 -0.3541653
vt 0.2211583 -0.3274354
vt 0.2188641 -0.3311837
vt 0.2668583 -0.3710262
vt 0.26894 -0.3671558
vt 0.2238464 -0.3429027
vt 0.2217648 -0.3467731
vt 0.2518415 -0.370799
vt 0.2541847 -0.3670812
vt 0.2108689 -0.3397796
vt 0.2085256 -0.3434973
vt 0.1899334 -0.3807489
vt 0.1932182 -0.3778295
vt 0.1592042 -0.3395582
vt 0.1559194 -0.3424776
vt -0.03275026 -0.4096793
vt -0.02836045 -0.4098866
vt -0.02594472 -0.3587417
vt -0.03033446 -0.3585343
vt -0.2235121 -0.3554933
vt -0.2203585 -0.358554
vt -0.1846986 -0.3218115
vt -0.1878522 -0.3187509
vt -0.2648296 -0.3541656
vt -0.2625355 -0.3579138
vt -0.2188644 -0.3311841
vt -0.2211585 -0.3274359
vt -0.2689399 -0.367156
vt -0.2668583 -0.3710263
vt -0.2217647 -0.3467731
vt -0.2238463 -0.3429028
vt -0.2541849 -0.3670809
vt -0.2518416 -0.3707986
vt -0.2085258 -0.3434971
vt -0.210869 -0.3397793
vt -0.1932176 -0.3778298
vt -0.1899328 -0.3807493
vt -0.1559189 -0.3424779
vt -0.1592037 -0.3395585
vt 0.02835564 -0.409887
vt 0.03274536 -0.4096797
vt 0.03033042 -0.3585347
vt 0.02594067 -0.358742
vt 0.2203581 -0.3585542
vt 0.2235116 -0.3554935
vt 0.1878518 -0.3187509
vt 0.1846982 -0.3218116
vt 0.04791047 -0.3367603
vt 0.04353868 -0.3372076
vt 0.04656349 -0.3451815
vt 0.02236978 -0.2036617
vt 0.02446977 -0.1998013
vt 0.02435819 -0.195408
vt 0.02206496 -0.1916592
vt 0.01820453 -0.1895592
vt 0.01381131 -0.1896708
vt 0.01006246 -0.191964
vt 0.007962467 -0.1958244
vt 0.008074046 -0.2002176
vt 0.01036729 -0.2039665
vt 0.01422771 -0.2060665
vt 0.01862093 -0.2059549
vt -0.2581828 -0.2218575
vt -0.2598039 -0.2177728
vt -0.2679887 -0.2201695
vt -0.2657834 -0.225726
vt -0.2651941 -0.3133402
vt -0.2669706 -0.3093207
vt -0.2736196 -0.3146614
vt -0.2564875 -0.3500236
vt -0.2584325 -0.3460828
vt -0.2663975 -0.3491309
vt -0.2637517 -0.3544917
vt -0.2406747 -0.3860343
vt -0.2432798 -0.3824951
vt -0.2486137 -0.3891495
vt -0.1643945 -0.422516
vt -0.1680837 -0.420128
vt -0.1733628 -0.4268261
vt -0.1683443 -0.4300746
vt -0.02338863 -0.4462555
vt -0.02778105 -0.4461138
vt -0.02585063 -0.4544207
vt 0.1305917 -0.4335192
vt 0.1268004 -0.4357416
vt 0.1304115 -0.4434676
vt 0.1355689 -0.4404444
vt 0.2235121 -0.3936128
vt 0.2208268 -0.3970916
vt 0.2286925 -0.4003873
vt 0.246319 -0.34615
vt 0.2443173 -0.3500624
vt 0.251516 -0.3546348
vt 0.2542391 -0.3493128
vt 0.2665326 -0.2971464
vt 0.2647536 -0.3011649
vt 0.2731781 -0.3024912
vt 0.2660006 -0.1945959
vt 0.2644367 -0.1987029
vt 0.2720906 -0.2024644
vt 0.274218 -0.1968777
vt -0.01636811 -0.2037889
vt -0.01111665 -0.2009322
vt -0.01096478 -0.194956
vt -0.01606449 -0.1918365
vt -0.02131594 -0.1946931
vt -0.02146772 -0.2006694
vt 0.2725282 -0.3459621
vt 0.2749529 -0.3422969
vt 0.2322493 -0.3140472
vt 0.2298247 -0.3177125
vt 0.2779364 -0.3527032
vt 0.2801595 -0.3489124
vt 0.2359921 -0.3230109
vt 0.233769 -0.3268018
vt 0.2604942 -0.3581675
vt 0.2629988 -0.3545564
vt 0.2209256 -0.3253761
vt 0.2184211 -0.3289872
vt 0.1894502 -0.3834049
vt 0.192895 -0.3806761
vt 0.1611017 -0.3405411
vt 0.1576569 -0.3432699
vt -0.03897355 -0.4164693
vt -0.03458952 -0.4167754
vt -0.03102323 -0.3656978
vt -0.03540719 -0.3653917
vt -0.2288811 -0.3572792
vt -0.2256358 -0.3602424
vt -0.1911115 -0.3224308
vt -0.1943569 -0.3194676
vt -0.2749534 -0.342297
vt -0.2725288 -0.3459621
vt -0.229825 -0.3177126
vt -0.2322497 -0.3140474
vt -0.2801594 -0.3489125
vt -0.2779363 -0.3527034
vt -0.233769 -0.3268019
vt -0.235992 -0.323011
vt -0.262999 -0.3545561
vt -0.2604944 -0.3581672
vt -0.2184213 -0.3289869
vt -0.2209258 -0.3253759
vt -0.1928943 -0.3806765
vt -0.1894495 -0.3834053
vt -0.1576563 -0.3432702
vt -0.1611011 -0.3405414
vt 0.03458484 -0.4167758
vt 0.03896878 -0.4164698
vt 0.03540322 -0.3653921
vt 0.03101925 -0.3656981
vt 0.2256353 -0.3602427
vt 0.2288806 -0.3572794
vt 0.1943565 -0.3194677
vt 0.1911111 -0.3224309
vt 0.05883667 -0.3521748
vt 0.05448376 -0.3527788
vt 0.05779305 -0.3606389
vt 0.02051601 -0.1667524
vt 0.02255582 -0.1628599
vt 0.02237605 -0.1584689
vt 0.0200249 -0.1547561
vt 0.01613234 -0.1527163
vt 0.01174138 -0.152896
vt 0.008028574 -0.1552472
vt 0.005988776 -0.1591398
vt 0.00616854 -0.1635307
vt 0.008519692 -0.1672435
vt 0.01241226 -0.1692833
vt 0.01680322 -0.1691036
vt -0.2635035 -0.2319497
vt -0.2654694 -0.2280194
vt -0.2734181 -0.23111
vt -0.2707438 -0.2364566
vt -0.2757955 -0.2999605
vt -0.2777516 -0.2960252
vt -0.2841527 -0.3016606
vt -0.2675951 -0.3282184
vt -0.2696634 -0.3243409
vt -0.2775283 -0.3276388
vt -0.2747146 -0.3329134
vt -0.2497456 -0.3694878
vt -0.2524448 -0.3660198
vt -0.2575981 -0.372815
vt -0.1696557 -0.4120119
vt -0.1733729 -0.4096677
vt -0.1785724 -0.4164276
vt -0.1735158 -0.4196166
vt -0.02723208 -0.443205
vt -0.0316215 -0.4429896
vt -0.0298308 -0.4513277
vt 0.1316567 -0.4245571
vt 0.1277864 -0.426639
vt 0.1311117 -0.4344923
vt 0.1363765 -0.4316603
vt 0.2312547 -0.3785583
vt 0.2284308 -0.3819256
vt 0.2361567 -0.3855369
vt 0.2575646 -0.3276263
vt 0.2554098 -0.3314565
vt 0.2624222 -0.3363099
vt 0.2653535 -0.3310997
vt 0.2782764 -0.2872584
vt 0.2763245 -0.2911958
vt 0.2846835 -0.2928867
vt 0.2756455 -0.2062888
vt 0.273805 -0.2102795
vt 0.2811844 -0.2145545
vt 0.283688 -0.209126
vt -0.01451705 -0.1669728
vt -0.009221863 -0.164198
vt -0.008977244 -0.1582249
vt -0.0140279 -0.1550265
vt -0.01932307 -0.1578013
vt -0.01956761 -0.1637745
vt 0.2818235 -0.3273582
vt 0.2843132 -0.3237368
vt 0.2421207 -0.2947293
vt 0.239631 -0.2983507
vt 0.2853293 -0.3388548
vt 0.2875562 -0.3350662
vt 0.2434148 -0.3091204
vt 0.241188 -0.312909
vt 0.2656762 -0.3538525
vt 0.2681227 -0.3502018
vt 0.2255889 -0.3216972
vt 0.2231424 -0.3253478
vt 0.1970631 -0.3832355
vt 0.2003569 -0.3803263
vt 0.1664613 -0.3419502
vt 0.1631675 -0.3448594
vt -0.02241354 -0.4188313
vt -0.01802194 -0.4186661
vt -0.01994698 -0.3675003
vt -0.02433851 -0.3676655
vt -0.2340217 -0.3482079
vt -0.2306202 -0.3509905
vt -0.1982003 -0.3113598
vt -0.2016017 -0.3085772
vt -0.2843136 -0.3237368
vt -0.2818239 -0.3273582
vt -0.2396313 -0.2983508
vt -0.242121 -0.2947294
vt -0.2875561 -0.3350663
vt -0.2853292 -0.338855
vt -0.2411879 -0.3129091
vt -0.2434148 -0.3091205
vt -0.268123 -0.3502016
vt -0.2656763 -0.3538522
vt -0.2231426 -0.3253476
vt -0.2255891 -0.3216969
vt -0.2003563 -0.3803266
vt -0.1970625 -0.3832359
vt -0.1631669 -0.3448597
vt -0.1664607 -0.3419505
vt 0.01801707 -0.4186663
vt 0.02240857 -0.4188316
vt 0.02433436 -0.3676659
vt 0.01994283 -0.3675006
vt 0.2306196 -0.3509908
vt 0.2340211 -0.3482082
vt 0.2016013 -0.3085774
vt 0.1981998 -0.31136
vt 0.01117232 -0.3626396
vt 0.006789912 -0.3623123
vt 0.008367702 -0.3706935
vt 0.0385936 -0.1522381
vt 0.04087455 -0.1484817
vt 0.04097174 -0.1440882
vt 0.03885913 -0.1402346
vt 0.03510279 -0.1379537
vt 0.03070923 -0.1378565
vt 0.0268557 -0.1399691
vt 0.02457475 -0.1437254
vt 0.02447755 -0.148119
vt 0.02659016 -0.1519725
vt 0.0303465 -0.1542535
vt 0.03474006 -0.1543507
vt -0.2704208 -0.2447368
vt -0.2722954 -0.2407621
vt -0.2803134 -0.2436683
vt -0.2777633 -0.2490752
vt -0.2830566 -0.3039235
vt -0.2850141 -0.2999889
vt -0.2914133 -0.3056264
vt -0.2777916 -0.3236671
vt -0.2799305 -0.3198281
vt -0.2877337 -0.3232692
vt -0.2848242 -0.3284915
vt -0.2599162 -0.357418
vt -0.2627143 -0.3540294
vt -0.2676693 -0.3609706
vt -0.1755671 -0.4043189
vt -0.1794045 -0.4021772
vt -0.1842344 -0.409206
vt -0.1790142 -0.4121194
vt -0.02211921 -0.439941
vt -0.02651238 -0.4400572
vt -0.02409794 -0.4482366
vt 0.1344468 -0.416617
vt 0.130692 -0.4189004
vt 0.1344277 -0.4265669
vt 0.1395354 -0.4234607
vt 0.2341444 -0.3665155
vt 0.2314135 -0.3699586
vt 0.239235 -0.3733578
vt 0.2612726 -0.3042318
vt 0.2591803 -0.3080964
vt 0.2662706 -0.3128353
vt 0.2691169 -0.3075782
vt 0.2858271 -0.2605136
vt 0.2838671 -0.264447
vt 0.2922226 -0.2661551
vt 0.284156 -0.1839149
vt 0.2822133 -0.1878568
vt 0.2894799 -0.1923207
vt 0.2921228 -0.1869585
vt -0.03259265 -0.1520801
vt -0.02748279 -0.1489773
vt -0.02761491 -0.1430006
vt -0.03285702 -0.1401268
vt -0.03796687 -0.1432296
vt -0.03783467 -0.1492063
o group1277069929
g mesh1277069929
usemtl mat5
f 3/3/1 2/2/1 1/1/1
f 6/6/2 5/5/2 4/4/2
f 7/9/3 1/8/3 2/7/3
f 9/12/4 3/11/4 8/10/4
f 11/15/5 10/14/5 1/13/5
f 13/18/6 12/17/6 6/16/6
f 7/21/7 14/20/7 8/19/7
f 5/24/8 9/23/8 8/22/8
f 4/27/9 5/26/9 8/25/9
f 15/30/10 7/29/10 2/28/10
f 6/33/11 15/32/11 2/31/11
f 10/36/12 16/35/12 3/34/12
f 16/39/13 17/38/13 7/37/13
f 11/42/14 1/41/14 7/40/14
f 19/45/15 18/44/15 11/43/15
f 20/48/16 16/47/16 10/46/16
f 21/51/17 17/50/17 16/49/17
f 22/54/18 11/53/18 17/52/18
f 21/57/19 20/56/19 22/55/19
f 18/60/20 23/59/20 20/58/20
f 23/64/21 24/63/21 22/62/21 20/61/21
f 24/68/22 19/67/22 11/66/22 22/65/22
f 24/72/23 23/71/23 18/70/23 19/69/23
f 12/76/24 25/75/24 5/74/24 6/73/24
f 25/79/25 26/78/25 5/77/25
f 28/83/26 27/82/26 2/81/26 9/80/26
f 29/86/27 12/85/27 13/84/27
f 29/91/28 31/90/28 30/89/28 25/88/28 12/87/28
f 30/94/29 26/93/29 25/92/29
f 33/97/30 32/96/30 26/95/30
f 38/102/31 37/101/31 36/100/31 35/99/31 34/98/31
f 13/107/32 39/106/32 34/105/32 35/104/32 29/103/32
f 30/112/33 37/111/33 38/110/33 33/109/33 26/108/33
f 6/115/34 2/114/34 13/113/34
f 26/118/35 9/117/35 5/116/35
f 40/121/36 2/120/36 27/119/36
f 40/126/37 41/125/37 26/124/37 32/123/37 13/122/37
f 41/129/38 42/128/38 28/127/38
f 41/133/39 40/132/39 43/131/39 42/130/39
f 9/136/40 26/135/40 41/134/40
f 40/139/41 13/138/41 2/137/41
f 44/142/42 43/141/42 27/140/42
f 46/146/43 45/145/43 42/144/43 43/143/43
f 47/149/44 28/148/44 42/147/44
f 47/152/45 44/151/45 27/150/45
f 47/155/46 45/154/46 44/153/46
f 44/158/47 46/157/47 43/156/47
f 42/161/48 45/160/48 47/159/48
f 48/164/49 4/163/49 14/162/49
f 8/167/50 14/166/50 4/165/50
f 15/170/51 49/169/51 7/168/51
f 50/173/52 15/172/52 4/171/52
f 51/176/53 49/175/53 15/174/53
f 51/179/54 48/178/54 14/177/54
f 53/182/55 52/181/55 48/180/55
f 48/185/56 52/184/56 4/183/56
f 15/188/57 50/187/57 51/186/57
f 55/191/58 54/190/58 50/189/58
f 56/194/59 51/193/59 50/192/59
f 56/197/60 53/196/60 48/195/60
f 57/200/61 55/199/61 53/198/61
f 50/203/62 54/202/62 56/201/62
f 53/206/63 55/205/63 52/204/63
f 59/209/64 58/208/64 55/207/64
f 60/212/65 56/211/65 54/210/65
f 57/215/66 53/214/66 56/213/66
f 58/218/67 59/217/67 57/216/67
f 54/221/68 58/220/68 60/219/68
f 57/224/69 59/223/69 55/222/69
f 17/227/70 61/226/70 22/225/70
f 20/230/71 21/229/71 16/228/71
f 28/233/72 9/232/72 41/231/72
f 43/236/73 40/235/73 27/234/73
f 3/239/74 9/238/74 2/237/74
f 27/242/75 28/241/75 47/240/75
f 4/245/76 15/244/76 6/243/76
f 7/248/77 49/247/77 14/246/77
f 14/251/78 49/250/78 51/249/78
f 48/254/79 51/253/79 56/252/79
f 56/257/80 60/256/80 57/255/80
f 57/260/81 60/259/81 58/258/81
f 4/263/82 52/262/82 50/261/82
f 50/266/83 52/265/83 55/264/83
f 45/269/84 46/268/84 44/267/84
f 33/273/85 38/272/85 34/271/85 39/270/85
f 39/279/87 13/278/87 32/277/87
f 58/338/103 54/337/103 55/336/103
f 16/341/104 8/340/104 3/339/104
f 7/344/105 8/343/105 16/342/105
f 21/347/106 61/346/106 17/345/106
f 22/350/107 61/349/107 21/348/107
f 7/353/108 17/352/108 11/351/108
f 10/356/109 3/355/109 1/354/109
f 18/359/110 10/358/110 11/357/110
f 20/362/111 10/361/111 18/360/111
f 104/454/134 103/453/134 102/452/134 101/451/134
f 103/458/135 106/457/135 105/456/135 102/455/135
f 106/462/136 108/461/136 107/460/136 105/459/136
f 108/466/137 110/465/137 109/464/137 107/463/137
f 110/470/138 112/469/138 111/468/138 109/467/138
f 112/474/139 114/473/139 113/472/139 111/471/139
f 114/478/140 116/477/140 115/476/140 113/475/140
f 116/482/141 118/481/141 117/480/141 115/479/141
f 118/486/142 120/485/142 119/484/142 117/483/142
f 120/490/143 122/489/143 121/488/143 119/487/143
f 122/494/144 124/493/144 123/492/144 121/491/144
f 124/498/145 104/497/145 101/496/145 123/495/145
f 124/513/147 122/512/147 120/511/147 118/510/147 116/509/147 114/508/147 112/507/147 110/506/147 108/505/147 106/504/147 103/503/147 104/502/147
f 134/562/160 133/561/160 132/560/160 131/559/160
f 133/566/161 136/565/161 135/564/161 132/563/161
f 136/570/162 138/569/162 137/568/162 135/567/162
f 138/574/163 140/573/163 139/572/163 137/571/163
f 140/578/164 142/577/164 141/576/164 139/575/164
f 142/582/165 144/581/165 143/580/165 141/579/165
f 144/586/166 146/585/166 145/584/166 143/583/166
f 146/590/167 148/589/167 147/588/167 145/587/167
f 148/594/168 150/593/168 149/592/168 147/591/168
f 150/598/169 152/597/169 151/596/169 149/595/169
f 152/602/170 154/601/170 153/600/170 151/599/170
f 154/606/171 134/605/171 131/604/171 153/603/171
f 154/621/173 152/620/173 150/619/173 148/618/173 146/617/173 144/616/173 142/615/173 140/614/173 138/613/173 136/612/173 133/611/173 134/610/173
f 164/670/186 163/669/186 162/668/186 161/667/186
f 163/674/187 166/673/187 165/672/187 162/671/187
f 166/678/188 168/677/188 167/676/188 165/675/188
f 168/682/189 170/681/189 169/680/189 167/679/189
f 170/686/190 172/685/190 171/684/190 169/683/190
f 172/690/191 174/689/191 173/688/191 171/687/191
f 174/694/192 176/693/192 175/692/192 173/691/192
f 176/698/193 178/697/193 177/696/193 175/695/193
f 178/702/194 180/701/194 179/700/194 177/699/194
f 180/706/195 182/705/195 181/704/195 179/703/195
f 182/710/196 184/709/196 183/708/196 181/707/196
f 184/714/197 164/713/197 161/712/197 183/711/197
f 184/729/199 182/728/199 180/727/199 178/726/199 176/725/199 174/724/199 172/723/199 170/722/199 168/721/199 166/720/199 163/719/199 164/718/199
f 194/778/212 193/777/212 192/776/212 191/775/212
f 193/782/213 196/781/213 195/780/213 192/779/213
f 196/786/214 198/785/214 197/784/214 195/783/214
f 198/790/215 200/789/215 199/788/215 197/787/215
f 200/794/216 202/793/216 201/792/216 199/791/216
f 202/798/217 204/797/217 203/796/217 201/795/217
f 204/802/218 206/801/218 205/800/218 203/799/218
f 206/806/219 208/805/219 207/804/219 205/803/219
f 208/810/220 210/809/220 209/808/220 207/807/220
f 210/814/221 212/813/221 211/812/221 209/811/221
f 212/818/222 214/817/222 213/816/222 211/815/222
f 214/822/223 194/821/223 191/820/223 213/819/223
f 214/837/225 212/836/225 210/835/225 208/834/225 206/833/225 204/832/225 202/831/225 200/830/225 198/829/225 196/828/225 193/827/225 194/826/225
f 224/886/238 223/885/238 222/884/238 221/883/238
f 223/890/239 226/889/239 225/888/239 222/887/239
f 226/894/240 228/893/240 227/892/240 225/891/240
f 228/898/241 230/897/241 229/896/241 227/895/241
f 230/902/242 232/901/242 231/900/242 229/899/242
f 232/906/243 234/905/243 233/904/243 231/903/243
f 234/910/244 236/909/244 235/908/244 233/907/244
f 236/914/245 238/913/245 237/912/245 235/911/245
f 238/918/246 240/917/246 239/916/246 237/915/246
f 240/922/247 242/921/247 241/920/247 239/919/247
f 242/926/248 244/925/248 243/924/248 241/923/248
f 244/930/249 224/929/249 221/928/249 243/927/249
f 244/945/251 242/944/251 240/943/251 238/942/251 236/941/251 234/940/251 232/939/251 230/938/251 228/937/251 226/936/251 223/935/251 224/934/251
usemtl mat13
f 62/276/86 39/275/86 32/274/86
f 64/283/88 63/282/88 33/281/88 39/280/88
f 62/286/89 32/285/89 33/284/89
f 63/289/90 64/288/90 62/287/90
f 33/292/91 63/291/91 62/290/91
f 62/295/92 64/294/92 39/293/92
f 66/299/93 65/298/93 29/297/93 35/296/93
f 68/303/94 67/302/94 30/301/94 31/300/94
f 65/307/95 69/306/95 31/305/95 29/304/95
f 69/311/96 70/310/96 36/309/96 31/308/96
f 70/315/97 66/314/97 35/313/97 36/312/97
f 70/319/98 69/318/98 65/317/98 66/316/98
f 67/323/99 71/322/99 37/321/99 30/320/99
f 71/327/100 72/326/100 36/325/100 37/324/100
f 72/331/101 68/330/101 31/329/101 36/328/101
f 72/335/102 71/334/102 67/333/102 68/332/102
f 76/366/112 75/365/112 74/364/112 73/363/112
f 75/370/113 78/369/113 77/368/113 74/367/113
f 78/374/114 80/373/114 79/372/114 77/371/114
f 80/378/115 82/377/115 81/376/115 79/375/115
f 82/382/116 76/381/116 73/380/116 81/379/116
f 82/387/117 80/386/117 78/385/117 75/384/117 76/383/117
f 73/392/118 74/391/118 77/390/118 79/389/118 81/388/118
f 86/396/119 85/395/119 84/394/119 83/393/119
f 85/400/120 88/399/120 87/398/120 84/397/120
f 88/404/121 90/403/121 89/402/121 87/401/121
f 90/408/122 92/407/122 91/406/122 89/405/122
f 92/412/123 94/411/123 93/410/123 91/409/123
f 94/416/124 86/415/124 83/414/124 93/413/124
f 94/422/125 92/421/125 90/420/125 88/419/125 85/418/125 86/417/125
f 83/428/126 84/427/126 87/426/126 89/425/126 91/424/126 93/423/126
f 97/431/127 96/430/127 95/429/127
f 96/434/128 98/433/128 95/432/128
f 98/438/129 97/437/129 100/436/129 99/435/129
f 98/441/130 96/440/130 97/439/130
f 100/444/131 95/443/131 99/442/131
f 95/447/132 100/446/132 97/445/132
f 98/450/133 99/449/133 95/448/133
f 125/501/146 121/500/146 123/499/146
f 125/517/148 126/516/148 119/515/148 121/514/148
f 126/520/149 117/519/149 119/518/149
f 126/524/150 127/523/150 115/522/150 117/521/150
f 127/527/151 113/526/151 115/525/151
f 127/531/152 128/530/152 111/529/152 113/528/152
f 128/534/153 109/533/153 111/532/153
f 128/538/154 129/537/154 107/536/154 109/535/154
f 129/541/155 105/540/155 107/539/155
f 129/545/156 130/544/156 102/543/156 105/542/156
f 130/548/157 101/547/157 102/546/157
f 130/552/158 125/551/158 123/550/158 101/549/158
f 130/558/159 129/557/159 128/556/159 127/555/159 126/554/159 125/553/159
f 155/609/172 151/608/172 153/607/172
f 155/625/174 156/624/174 149/623/174 151/622/174
f 156/628/175 147/627/175 149/626/175
f 156/632/176 157/631/176 145/630/176 147/629/176
f 157/635/177 143/634/177 145/633/177
f 157/639/178 158/638/178 141/637/178 143/636/178
f 158/642/179 139/641/179 141/640/179
f 158/646/180 159/645/180 137/644/180 139/643/180
f 159/649/181 135/648/181 137/647/181
f 159/653/182 160/652/182 132/651/182 135/650/182
f 160/656/183 131/655/183 132/654/183
f 160/660/184 155/659/184 153/658/184 131/657/184
f 160/666/185 159/665/185 158/664/185 157/663/185 156/662/185 155/661/185
f 185/717/198 181/716/198 183/715/198
f 185/733/200 186/732/200 179/731/200 181/730/200
f 186/736/201 177/735/201 179/734/201
f 186/740/202 187/739/202 175/738/202 177/737/202
f 187/743/203 173/742/203 175/741/203
f 187/747/204 188/746/204 171/745/204 173/744/204
f 188/750/205 169/749/205 171/748/205
f 188/754/206 189/753/206 167/752/206 169/751/206
f 189/757/207 165/756/207 167/755/207
f 189/761/208 190/760/208 162/759/208 165/758/208
f 190/764/209 161/763/209 162/762/209
f 190/768/210 185/767/210 183/766/210 161/765/210
f 190/774/211 189/773/211 188/772/211 187/771/211 186/770/211 185/769/211
f 215/825/224 211/824/224 213/823/224
f 215/841/226 216/840/226 209/839/226 211/838/226
f 216/844/227 207/843/227 209/842/227
f 216/848/228 217/847/228 205/846/228 207/845/228
f 217/851/229 203/850/229 205/849/229
f 217/855/230 218/854/230 201/853/230 203/852/230
f 218/858/231 199/857/231 201/856/231
f 218/862/232 219/861/232 197/860/232 199/859/232
f 219/865/233 195/864/233 197/863/233
f 219/869/234 220/868/234 192/867/234 195/866/234
f 220/872/235 191/871/235 192/870/235
f 220/876/236 215/875/236 213/874/236 191/873/236
f 220/882/237 219/881/237 218/880/237 217/879/237 216/878/237 215/877/237
f 245/933/250 241/932/250 243/931/250
f 245/949/252 246/948/252 239/947/252 241/946/252
f 246/952/253 237/951/253 239/950/253
f 246/956/254 247/955/254 235/954/254 237/953/254
f 247/959/255 233/958/255 235/957/255
f 247/963/256 248/962/256 231/961/256 233/960/256
f 248/966/257 229/965/257 231/964/257
f 248/970/258 249/969/258 227/968/258 229/967/258
f 249/973/259 225/972/259 227/971/259
f 249/977/260 250/976/260 222/975/260 225/974/260
f 250/980/261 221/979/261 222/978/261
f 250/984/262 245/983/262 243/982/262 221/981/262
f 250/990/263 249/989/263 248/988/263 247/987/263 246/986/263 245/985/263
