%YAML 1.1
%TAG !u! tag:unity3d.com,2011:
--- !u!1 &5295462536091772061
GameObject:
  m_ObjectHideFlags: 0
  m_CorrespondingSourceObject: {fileID: 0}
  m_PrefabInstance: {fileID: 0}
  m_PrefabAsset: {fileID: 0}
  serializedVersion: 6
  m_Component:
  - component: {fileID: 6600647393147076740}
  m_Layer: 0
  m_Name: StereQuad_DoubleFace
  m_TagString: Untagged
  m_Icon: {fileID: 0}
  m_NavMeshLayer: 0
  m_StaticEditorFlags: 0
  m_IsActive: 1
--- !u!4 &6600647393147076740
Transform:
  m_ObjectHideFlags: 0
  m_CorrespondingSourceObject: {fileID: 0}
  m_PrefabInstance: {fileID: 0}
  m_PrefabAsset: {fileID: 0}
  m_GameObject: {fileID: 5295462536091772061}
  m_LocalRotation: {x: 0, y: 0, z: 0, w: 1}
  m_LocalPosition: {x: 0.6080096, y: 0.6080097, z: -0.60800993}
  m_LocalScale: {x: 1, y: 1, z: 1}
  m_Children:
  - {fileID: 8840443428973394130}
  m_Father: {fileID: 0}
  m_RootOrder: 0
  m_LocalEulerAnglesHint: {x: 0, y: 0, z: 0}
--- !u!1001 &4599622981104997320
PrefabInstance:
  m_ObjectHideFlags: 0
  serializedVersion: 2
  m_Modification:
    m_TransformParent: {fileID: 6600647393147076740}
    m_Modifications:
    - target: {fileID: -927199367670048503, guid: e85d4adda38776749a46a72d1bee1f21,
        type: 3}
      propertyPath: m_Name
      value: StereoQuad
      objectReference: {fileID: 0}
    - target: {fileID: -4216859302048453862, guid: e85d4adda38776749a46a72d1bee1f21,
        type: 3}
      propertyPath: m_LocalPosition.x
      value: 0
      objectReference: {fileID: 0}
    - target: {fileID: -4216859302048453862, guid: e85d4adda38776749a46a72d1bee1f21,
        type: 3}
      propertyPath: m_LocalPosition.y
      value: 0
      objectReference: {fileID: 0}
    - target: {fileID: -4216859302048453862, guid: e85d4adda38776749a46a72d1bee1f21,
        type: 3}
      propertyPath: m_LocalPosition.z
      value: 0
      objectReference: {fileID: 0}
    - target: {fileID: -4216859302048453862, guid: e85d4adda38776749a46a72d1bee1f21,
        type: 3}
      propertyPath: m_LocalRotation.x
      value: -0
      objectReference: {fileID: 0}
    - target: {fileID: -4216859302048453862, guid: e85d4adda38776749a46a72d1bee1f21,
        type: 3}
      propertyPath: m_LocalRotation.y
      value: -0
      objectReference: {fileID: 0}
    - target: {fileID: -4216859302048453862, guid: e85d4adda38776749a46a72d1bee1f21,
        type: 3}
      propertyPath: m_LocalRotation.z
      value: -0
      objectReference: {fileID: 0}
    - target: {fileID: -4216859302048453862, guid: e85d4adda38776749a46a72d1bee1f21,
        type: 3}
      propertyPath: m_LocalRotation.w
      value: 1
      objectReference: {fileID: 0}
    - target: {fileID: -4216859302048453862, guid: e85d4adda38776749a46a72d1bee1f21,
        type: 3}
      propertyPath: m_RootOrder
      value: 0
      objectReference: {fileID: 0}
    - target: {fileID: -4216859302048453862, guid: e85d4adda38776749a46a72d1bee1f21,
        type: 3}
      propertyPath: m_LocalEulerAnglesHint.x
      value: 0
      objectReference: {fileID: 0}
    - target: {fileID: -4216859302048453862, guid: e85d4adda38776749a46a72d1bee1f21,
        type: 3}
      propertyPath: m_LocalEulerAnglesHint.y
      value: 0
      objectReference: {fileID: 0}
    - target: {fileID: -4216859302048453862, guid: e85d4adda38776749a46a72d1bee1f21,
        type: 3}
      propertyPath: m_LocalEulerAnglesHint.z
      value: 0
      objectReference: {fileID: 0}
    - target: {fileID: -1360320903241533862, guid: e85d4adda38776749a46a72d1bee1f21,
        type: 3}
      propertyPath: m_LocalRotation.x
      value: -0.50000066
      objectReference: {fileID: 0}
    - target: {fileID: -1360320903241533862, guid: e85d4adda38776749a46a72d1bee1f21,
        type: 3}
      propertyPath: m_LocalRotation.y
      value: 0.4999993
      objectReference: {fileID: 0}
    - target: {fileID: -1360320903241533862, guid: e85d4adda38776749a46a72d1bee1f21,
        type: 3}
      propertyPath: m_LocalRotation.z
      value: -0.49999937
      objectReference: {fileID: 0}
    - target: {fileID: -1360320903241533862, guid: e85d4adda38776749a46a72d1bee1f21,
        type: 3}
      propertyPath: m_LocalRotation.w
      value: -0.50000066
      objectReference: {fileID: 0}
    - target: {fileID: -1360320903241533862, guid: e85d4adda38776749a46a72d1bee1f21,
        type: 3}
      propertyPath: m_LocalPosition.x
      value: 0
      objectReference: {fileID: 0}
    - target: {fileID: -1360320903241533862, guid: e85d4adda38776749a46a72d1bee1f21,
        type: 3}
      propertyPath: m_LocalEulerAnglesHint.x
      value: 90.00001
      objectReference: {fileID: 0}
    - target: {fileID: -1360320903241533862, guid: e85d4adda38776749a46a72d1bee1f21,
        type: 3}
      propertyPath: m_LocalEulerAnglesHint.z
      value: -270
      objectReference: {fileID: 0}
    - target: {fileID: 6495092461395397894, guid: e85d4adda38776749a46a72d1bee1f21,
        type: 3}
      propertyPath: m_LocalPosition.x
      value: 0
      objectReference: {fileID: 0}
    m_RemovedComponents: []
  m_SourcePrefab: {fileID: 100100000, guid: e85d4adda38776749a46a72d1bee1f21, type: 3}
--- !u!4 &8840443428973394130 stripped
Transform:
  m_CorrespondingSourceObject: {fileID: -4216859302048453862, guid: e85d4adda38776749a46a72d1bee1f21,
    type: 3}
  m_PrefabInstance: {fileID: 4599622981104997320}
  m_PrefabAsset: {fileID: 0}
